…
```
## # A tibble: 1 x 3
##   `n_distinct(species_id)` `n_distinct(genus)` `n()`
##                      <int>               <int> <int>
## 1                       48                  26 34786
```

```r
deserts %>% 
  count(species) %>% 
  arrange(n)
```

```
## # A tibble: 40 x 2
##    species          n
##    <chr>        <int>
##  1 clarki           1
##  2 scutalatus       1
##  3 tereticaudus     1
##  4 tigris           1
##  5 uniparens        1
##  6 viridis          1
##  7 leucophrys       2
##  8 savannarum       2
##  9 fuscus           5
## 10 undulatus        5
## # … with 30 more rows
```
…
5. What is the range of weight for each species included in the study? Remove any observations of weight that are NA so they do not show up in the plot.

```r
deserts %>% 
  filter(weight != "NA") %>% 
  group_by(species) %>% 
  summarise(max_weight = max(weight), min_weight = min(weight), mean_weight = mean(weight))
```

```
## # A tibble: 22 x 4
##    species     max_weight min_weight mean_weight
##  * <chr>            <dbl>      <dbl>       <dbl>
##  1 albigula           280         30      159.  
##  2 baileyi             55         12       31.7 
##  3 eremicus            40          8       21.6 
##  4 flavus              25          4        7.92
##  5 fulvescens          20          9       13.4 
##  6 fulviventer        199         24       58.9 
##  7 hispidus           140         16       65.6 
##  8 intermedius         21         17       19.2 
##  9 leucogaster         56         10       31.6 
## 10 leucopus            27          8       19.1 
## # … with 12 more rows
```
…
9. Which two species have, on average, the highest weight? Once you have identified them, make a new column that is a ratio of `weight` to `hindfoot_length`. Make a plot that shows the range of this new ratio and fill by sex.

```r
deserts %>% 
  group_by(species) %>% 
  summarise(average_weight = mean(weight, na.rm = T)) %>% 
  arrange(desc(average_weight))
```

```
## # A tibble: 40 x 2
##    species      average_weight
##    <chr>                 <dbl>
##  1 albigula              159. 
##  2 spectabilis           120. 
##  3 spilosoma              93.5
##  4 hispidus               65.6
##  5 fulviventer            58.9
##  6 ochrognathus           55.4
##  7 ordii                  48.9
##  8 merriami               43.2
##  9 baileyi                31.7
## 10 leucogaster            31.6
## # … with 30 more rows
```
…
