Lab 11 Homework
…
glimpse(gapminder)

## Rows: 1,704
## Columns: 6
## $ country   <fct> Afghanistan, Afghanistan, Afghanistan, Afghanistan, Afghani
## $ continent <fct> Asia, Asia, Asia, Asia, Asia, Asia, Asia, Asia, Asia, Asia,
## $ year      <int> 1952, 1957, 1962, 1967, 1972, 1977, 1982, 1987, 1992, 1997,
## $ lifeExp   <dbl> 28.801, 30.332, 31.997, 34.020, 36.088, 38.438, 39.854, 40.
## $ pop       <int> 8425333, 9240934, 10267083, 11537966, 13079460, 14880372, 1
## $ gdpPercap <dbl> 779.4453, 820.8530, 853.1007, 836.1971, 739.9811, 786.1134,

gapminder

## # A tibble: 1,704 x 6
##    country     continent  year lifeExp      pop gdpPercap
##    <fct>       <fct>     <int>   <dbl>    <int>     <dbl>
##  1 Afghanistan Asia       1952    28.8  8425333      779.
##  2 Afghanistan Asia       1957    30.3  9240934      821.
##  3 Afghanistan Asia       1962    32.0 10267083      853.
##  4 Afghanistan Asia       1967    34.0 11537966      836.
##  5 Afghanistan Asia       1972    36.1 13079460      740.
##  6 Afghanistan Asia       1977    38.4 14880372      786.
##  7 Afghanistan Asia       1982    39.9 12881816      978.
##  8 Afghanistan Asia       1987    40.8 13867957      852.
##  9 Afghanistan Asia       1992    41.7 16317921      649.
## 10 Afghanistan Asia       1997    41.8 22227415      635.
## #  with 1,694 more rows
…
4. Your answer above doesnt tell the whole story since life expectancy varies by region. Make a summary that shows the min, mean, and max life expectancy by continent for all years represented in the data.

gapminder %>% 
  group_by(year, continent) %>% 
  summarize(max_life = max(lifeExp), min_life = min(lifeExp), mean_life = mean(lifeExp))

## `summarise()` has grouped output by 'year'. You can override using the `.groups` argument.

## # A tibble: 60 x 5
## # Groups:   year [12]
##     year continent max_life min_life mean_life
##    <int> <fct>        <dbl>    <dbl>     <dbl>
##  1  1952 Africa        52.7     30        39.1
##  2  1952 Americas      68.8     37.6      53.3
##  3  1952 Asia          65.4     28.8      46.3
##  4  1952 Europe        72.7     43.6      64.4
##  5  1952 Oceania       69.4     69.1      69.3
##  6  1957 Africa        58.1     31.6      41.3
##  7  1957 Americas      70.0     40.7      56.0
##  8  1957 Asia          67.8     30.3      49.3
##  9  1957 Europe        73.5     48.1      66.7
## 10  1957 Oceania       70.3     70.3      70.3
## #  with 50 more rows
…
7. Which countries have had the largest population growth since 1952?

gapminder_2 <- gapminder %>% 
  select(year, country, pop) %>% 
  filter(year == "1952" | year == "2007") %>% 
  pivot_wider(names_from = year, values_from = "pop" ) %>% 
  rename(initial_pop = "1952", final_pop = "2007")
gapminder_2

## # A tibble: 142 x 3
##    country     initial_pop final_pop
##    <fct>             <int>     <int>
##  1 Afghanistan     8425333  31889923
##  2 Albania         1282697   3600523
##  3 Algeria         9279525  33333216
##  4 Angola          4232095  12420476
##  5 Argentina      17876956  40301927
##  6 Australia       8691212  20434176
##  7 Austria         6927772   8199783
##  8 Bahrain          120447    708573
##  9 Bangladesh     46886859 150448339
## 10 Belgium         8730405  10392226
## #  with 132 more rows

growth <- gapminder_2 %>% 
  mutate(pop_growth = final_pop - initial_pop) %>% 
  arrange(desc(pop_growth))
growth

## # A tibble: 142 x 4
##    country       initial_pop  final_pop pop_growth
##    <fct>               <int>      <int>      <int>
##  1 China           556263527 1318683096  762419569
##  2 India           372000000 1110396331  738396331
##  3 United States   157553000  301139947  143586947
##  4 Indonesia        82052000  223547000  141495000
##  5 Brazil           56602560  190010647  133408087
##  6 Pakistan         41346560  169270617  127924057
##  7 Bangladesh       46886859  150448339  103561480
##  8 Nigeria          33119096  135031164  101912068
##  9 Mexico           30144317  108700891   78556574
## 10 Philippines      22438691   91077287   68638596
## #  with 132 more rows
…
