…
**12. (4 points) Based on your interest, do one exploratory analysis on the `gabon` data of your choice. This analysis needs to include a minimum of two functions in `dplyr.`**

```r
#Elephants are afraid of mice, so are there less elephants in areas with lots of rodents? 
#I'll include distance from people too, since that affects both rodent and elephant abundance. 
gabon %>% 
  select(RA_Elephant, RA_Rodent, Distance) %>% 
  arrange(desc(RA_Elephant))
```

```
## # A tibble: 24 x 3
##    RA_Elephant RA_Rodent Distance
##          <dbl>     <dbl>    <dbl>
##  1        2.3       2.09    18.8 
##  2        2.2       4.37     5.78
##  3        1.33      1.06    18.3 
##  4        1.11      3.1     24.1 
##  5        1         2.52    16.0 
##  6        0.99      2.97     6.61
##  7        0.86      6.04    17.3 
##  8        0.77      5.41     5.14
##  9        0.56      3.66    20.8 
## 10        0.52      4.54     8.23
## # … with 14 more rows
```
…
