…
```r
superhero_info <- rename(superhero_info, name=name, gender=Gender, eye_color='Eye color', race=Race, hair_color='Hair color', height=Height, publisher=Publisher, skin_color='Skin color', alignment=Alignment, weight=Weight)
```




```r
superhero_info <- superhero_info %>%
  mutate_all(tolower)
superhero_info
```

```
## # A tibble: 734 x 10
##    name  gender eye_color race  hair_color height publisher skin_color alignment
##    <chr> <chr>  <chr>     <chr> <chr>      <chr>  <chr>     <chr>      <chr>    
##  1 a-bo~ male   yellow    human no hair    203    marvel c~ <NA>       good     
##  2 abe ~ male   blue      icth~ no hair    191    dark hor~ blue       good     
##  3 abin~ male   blue      unga~ no hair    185    dc comics red        good     
##  4 abom~ male   green     huma~ no hair    203    marvel c~ <NA>       bad      
##  5 abra~ male   blue      cosm~ black      <NA>   marvel c~ <NA>       bad      
##  6 abso~ male   blue      human no hair    193    marvel c~ <NA>       bad      
##  7 adam~ male   blue      <NA>  blond      <NA>   nbc - he~ <NA>       good     
##  8 adam~ male   blue      human blond      185    dc comics <NA>       good     
##  9 agen~ female blue      <NA>  blond      173    marvel c~ <NA>       good     
## 10 agen~ male   brown     human brown      178    marvel c~ <NA>       good     
## # ... with 724 more rows, and 1 more variable: weight <chr>
```
…
2. Notice that we have some neutral superheros! Who are they?

```r
superhero_info %>% 
  filter(alignment == "neutral")
```

```
## # A tibble: 24 x 10
##    name  gender eye_color race  hair_color height publisher skin_color alignment
##    <chr> <chr>  <chr>     <chr> <chr>      <chr>  <chr>     <chr>      <chr>    
##  1 biza~ male   black     biza~ black      191    dc comics white      neutral  
##  2 blac~ male   <NA>      god ~ <NA>       <NA>   dc comics <NA>       neutral  
##  3 capt~ male   brown     human brown      <NA>   dc comics <NA>       neutral  
##  4 copy~ female red       muta~ white      183    marvel c~ blue       neutral  
##  5 dead~ male   brown     muta~ no hair    188    marvel c~ <NA>       neutral  
##  6 deat~ male   blue      human white      193    dc comics <NA>       neutral  
##  7 etri~ male   red       demon no hair    193    dc comics yellow     neutral  
##  8 gala~ male   black     cosm~ black      876    marvel c~ <NA>       neutral  
##  9 glad~ male   blue      stro~ blue       198    marvel c~ purple     neutral  
## 10 indi~ female <NA>      alien purple     <NA>   dc comics <NA>       neutral  
## # ... with 14 more rows, and 1 more variable: weight <chr>
```

## `superhero_info`
3. Let's say we are only interested in the variables name, alignment, and "race". How would you isolate these variables from `superhero_info`?

```r
superhero_info %>% 
  select(name, alignment, race)
```

```
## # A tibble: 734 x 3
##    name          alignment race             
##    <chr>         <chr>     <chr>            
##  1 a-bomb        good      human            
##  2 abe sapien    good      icthyo sapien    
##  3 abin sur      good      ungaran          
##  4 abomination   bad       human / radiation
##  5 abraxas       bad       cosmic entity    
##  6 absorbing man bad       human            
##  7 adam monroe   good      <NA>             
##  8 adam strange  good      human            
##  9 agent 13      good      <NA>             
## 10 agent bob     good      human            
## # ... with 724 more rows
```

## Not Human
4. List all of the superheros that are not human.

```r
 superhero_info %>% 
  filter(race != "human")
```

```
## # A tibble: 222 x 10
##    name  gender eye_color race  hair_color height publisher skin_color alignment
##    <chr> <chr>  <chr>     <chr> <chr>      <chr>  <chr>     <chr>      <chr>    
##  1 abe ~ male   blue      icth~ no hair    191    dark hor~ blue       good     
##  2 abin~ male   blue      unga~ no hair    185    dc comics red        good     
##  3 abom~ male   green     huma~ no hair    203    marvel c~ <NA>       bad      
##  4 abra~ male   blue      cosm~ black      <NA>   marvel c~ <NA>       bad      
##  5 ajax  male   brown     cybo~ black      193    marvel c~ <NA>       bad      
##  6 alien male   <NA>      xeno~ no hair    244    dark hor~ black      bad      
##  7 amazo male   red       andr~ <NA>       257    dc comics <NA>       bad      
##  8 angel male   <NA>      vamp~ <NA>       <NA>   dark hor~ <NA>       good     
##  9 ange~ female yellow    muta~ black      165    marvel c~ <NA>       good     
## 10 anti~ male   yellow    god ~ no hair    61     dc comics <NA>       bad      
## # ... with 212 more rows, and 1 more variable: weight <chr>
```

## Good and Evil
5. Let's make two different data frames, one focused on the "good guys" and another focused on the "bad guys".

```r
good_guys <- superhero_info %>%
  filter(alignment == "good")
  
good_guys
```

```
## # A tibble: 496 x 10
##    name  gender eye_color race  hair_color height publisher skin_color alignment
##    <chr> <chr>  <chr>     <chr> <chr>      <chr>  <chr>     <chr>      <chr>    
##  1 a-bo~ male   yellow    human no hair    203    marvel c~ <NA>       good     
##  2 abe ~ male   blue      icth~ no hair    191    dark hor~ blue       good     
##  3 abin~ male   blue      unga~ no hair    185    dc comics red        good     
##  4 adam~ male   blue      <NA>  blond      <NA>   nbc - he~ <NA>       good     
##  5 adam~ male   blue      human blond      185    dc comics <NA>       good     
##  6 agen~ female blue      <NA>  blond      173    marvel c~ <NA>       good     
##  7 agen~ male   brown     human brown      178    marvel c~ <NA>       good     
##  8 agen~ male   <NA>      <NA>  <NA>       191    marvel c~ <NA>       good     
##  9 alan~ male   blue      <NA>  blond      180    dc comics <NA>       good     
## 10 alex~ male   <NA>      <NA>  <NA>       <NA>   nbc - he~ <NA>       good     
## # ... with 486 more rows, and 1 more variable: weight <chr>
```

```r
bad_guys <- superhero_info %>%
  filter(alignment == "bad")

bad_guys
```

```
## # A tibble: 207 x 10
##    name  gender eye_color race  hair_color height publisher skin_color alignment
##    <chr> <chr>  <chr>     <chr> <chr>      <chr>  <chr>     <chr>      <chr>    
##  1 abom~ male   green     huma~ no hair    203    marvel c~ <NA>       bad      
##  2 abra~ male   blue      cosm~ black      <NA>   marvel c~ <NA>       bad      
##  3 abso~ male   blue      human no hair    193    marvel c~ <NA>       bad      
##  4 air-~ male   blue      <NA>  white      188    marvel c~ <NA>       bad      
##  5 ajax  male   brown     cybo~ black      193    marvel c~ <NA>       bad      
##  6 alex~ male   <NA>      human <NA>       <NA>   wildstorm <NA>       bad      
##  7 alien male   <NA>      xeno~ no hair    244    dark hor~ black      bad      
##  8 amazo male   red       andr~ <NA>       257    dc comics <NA>       bad      
##  9 ammo  male   brown     human black      188    marvel c~ <NA>       bad      
## 10 ange~ female <NA>      <NA>  <NA>       <NA>   image co~ <NA>       bad      
## # ... with 197 more rows, and 1 more variable: weight <chr>
```
…
10. Let's explore who the really "big" superheros are. In the `superhero_info` data, which have a height over 200 or weight over 300?

```r
superhero_info %>%
  filter(height > 200 | weight > 300)
```

```
## # A tibble: 405 x 10
##    name  gender eye_color race  hair_color height publisher skin_color alignment
##    <chr> <chr>  <chr>     <chr> <chr>      <chr>  <chr>     <chr>      <chr>    
##  1 a-bo~ male   yellow    human no hair    203    marvel c~ <NA>       good     
##  2 abe ~ male   blue      icth~ no hair    191    dark hor~ blue       good     
##  3 abin~ male   blue      unga~ no hair    185    dc comics red        good     
##  4 abom~ male   green     huma~ no hair    203    marvel c~ <NA>       bad      
##  5 adam~ male   blue      human blond      185    dc comics <NA>       good     
##  6 agen~ female blue      <NA>  blond      173    marvel c~ <NA>       good     
##  7 agen~ male   brown     human brown      178    marvel c~ <NA>       good     
##  8 ajax  male   brown     cybo~ black      193    marvel c~ <NA>       bad      
##  9 alan~ male   blue      <NA>  blond      180    dc comics <NA>       good     
## 10 alfr~ male   blue      human black      178    dc comics <NA>       good     
## # ... with 395 more rows, and 1 more variable: weight <chr>
```
…
14. How many superheros have a combination of accelerated healing, durability, and super strength?

```r
superhero_powers %>% 
  filter(accelerated_healing == "TRUE" & durability == "TRUE" & super_strength == "TRUE") %>% 
  select(hero_names, accelerated_healing, durability, super_strength)
```

```
## # A tibble: 97 x 4
##    hero_names   accelerated_healing durability super_strength
##    <chr>        <lgl>               <lgl>      <lgl>         
##  1 A-Bomb       TRUE                TRUE       TRUE          
##  2 Abe Sapien   TRUE                TRUE       TRUE          
##  3 Angel        TRUE                TRUE       TRUE          
##  4 Anti-Monitor TRUE                TRUE       TRUE          
##  5 Anti-Venom   TRUE                TRUE       TRUE          
##  6 Aquaman      TRUE                TRUE       TRUE          
##  7 Arachne      TRUE                TRUE       TRUE          
##  8 Archangel    TRUE                TRUE       TRUE          
##  9 Ardina       TRUE                TRUE       TRUE          
## 10 Ares         TRUE                TRUE       TRUE          
## # ... with 87 more rows
```

## `kinesis`
15. We are only interested in the superheros that do some kind of "kinesis". How would we isolate them from the `superhero_powers` data?

```r
superhero_powers %>%
  select(hero_names, contains("kinesis")) %>% 
  filter(thirstokinesis == "TRUE" | biokinesis == "TRUE" | terrakinesis == "TRUE" | vitakinesis == "TRUE" | electrokinesis == "TRUE" | telekinesis == "TRUE" | hyperkinesis == "TRUE" | hypnokinesis == "TRUE" | cryokinesis == "TRUE" | electrokinesis == "TRUE" | telekinesis == "TRUE" | hyperkinesis == "TRUE")
```

```
## # A tibble: 112 x 10
##    hero_names cryokinesis electrokinesis telekinesis hyperkinesis hypnokinesis
##    <chr>      <lgl>       <lgl>          <lgl>       <lgl>        <lgl>       
##  1 Alan Scott FALSE       FALSE          FALSE       FALSE        TRUE        
##  2 Amazo      TRUE        FALSE          FALSE       FALSE        FALSE       
##  3 Apocalypse FALSE       FALSE          TRUE        FALSE        FALSE       
##  4 Aqualad    TRUE        FALSE          FALSE       FALSE        FALSE       
##  5 Beyonder   FALSE       FALSE          TRUE        FALSE        FALSE       
##  6 Bizarro    TRUE        FALSE          FALSE       FALSE        TRUE        
##  7 Black Abb~ FALSE       FALSE          TRUE        FALSE        FALSE       
##  8 Black Adam FALSE       FALSE          TRUE        FALSE        FALSE       
##  9 Black Lig~ FALSE       TRUE           FALSE       FALSE        FALSE       
## 10 Black Mam~ FALSE       FALSE          FALSE       FALSE        TRUE        
## # ... with 102 more rows, and 4 more variables: thirstokinesis <lgl>,
## #   biokinesis <lgl>, terrakinesis <lgl>, vitakinesis <lgl>
```
…
