…
fisheries_tidy$catch <- as.numeric(fisheries_tidy$catch)
```

3. How many countries are represented in the data? Provide a count and list their names.

```r
fisheries_tidy %>% 
  count(country, sort = TRUE)
```

```
## # A tibble: 203 x 2
##    country                      n
##    <fct>                    <int>
##  1 United States of America 18080
##  2 Spain                    17482
##  3 Japan                    15429
##  4 Portugal                 11570
##  5 Korea, Republic of       10824
##  6 France                   10639
##  7 Taiwan Province of China  9927
##  8 Indonesia                 9274
##  9 Australia                 8183
## 10 Un. Sov. Soc. Rep.        7084
## # ... with 193 more rows
```

```r
#why does nlevels(fisheries_tidy$country) return 204 rows, while the above function returns 203?
```

4. Refocus the data only to include only: country, isscaap_taxonomic_group, asfis_species_name, asfis_species_number, year, catch.

```r
fisheries_tidy_2 <- fisheries_tidy %>% 
  select(country, isscaap_taxonomic_group, asfis_species_name, asfis_species_number, year, catch)
fisheries_tidy_2
```

```
## # A tibble: 376,771 x 6
##    country isscaap_taxonomic_g~ asfis_species_na~ asfis_species_num~  year catch
##    <fct>   <chr>                <chr>             <fct>              <dbl> <dbl>
##  1 Albania Sharks, rays, chima~ Squatinidae       10903XXXXX          1995    NA
##  2 Albania Sharks, rays, chima~ Squatinidae       10903XXXXX          1996    53
##  3 Albania Sharks, rays, chima~ Squatinidae       10903XXXXX          1997    20
##  4 Albania Sharks, rays, chima~ Squatinidae       10903XXXXX          1998    31
##  5 Albania Sharks, rays, chima~ Squatinidae       10903XXXXX          1999    30
##  6 Albania Sharks, rays, chima~ Squatinidae       10903XXXXX          2000    30
##  7 Albania Sharks, rays, chima~ Squatinidae       10903XXXXX          2001    16
##  8 Albania Sharks, rays, chima~ Squatinidae       10903XXXXX          2002    79
##  9 Albania Sharks, rays, chima~ Squatinidae       10903XXXXX          2003     1
## 10 Albania Sharks, rays, chima~ Squatinidae       10903XXXXX          2004     4
## # ... with 376,761 more rows
```
…
6. Which country had the largest overall catch in the year 2000?


```r
fisheries_tidy_2 %>% 
  filter(year == 2000) %>% 
  group_by(country) %>% 
  summarize(total_catch = sum(catch, na.rm = TRUE), n = n()) %>% 
  arrange(desc(total_catch))
```

```
## # A tibble: 193 x 3
##    country                  total_catch     n
##    <fct>                          <dbl> <int>
##  1 China                          25899    93
##  2 Russian Federation             12181   192
##  3 United States of America       11762   438
##  4 Japan                           8510   241
##  5 Indonesia                       8341   140
##  6 Peru                            7443    54
##  7 Chile                           6906    91
##  8 India                           6351    98
##  9 Thailand                        6243   127
## 10 Korea, Republic of              6124   265
## # ... with 183 more rows
```
China had the largest catch total in 2000. 

7. Which country caught the most sardines (_Sardina pilchardus_) between the years 1990-2000?

```r
fisheries_tidy_2 %>% 
  filter(asfis_species_name == "Sardina pilchardus") %>%
  filter(between(year, 1990, 2000)) %>% 
  group_by(country) %>% 
  summarize(total_sardines = sum(catch, na.rm = TRUE)) %>% 
  arrange(desc(total_sardines))
```

```
## # A tibble: 37 x 2
##    country               total_sardines
##    <fct>                          <dbl>
##  1 Morocco                         7470
##  2 Spain                           3507
##  3 Russian Federation              1639
##  4 Ukraine                         1030
##  5 France                           966
##  6 Portugal                         818
##  7 Greece                           528
##  8 Italy                            507
##  9 Serbia and Montenegro            478
## 10 Denmark                          477
## # ... with 27 more rows
```
Morocco caught the most sardies between 1990-2000.

8. Which five countries caught the most cephalopods between 2008-2012?

```r
fisheries_tidy_2 %>% 
  filter(isscaap_taxonomic_group == "Squids, cuttlefishes, octopuses") %>%
  filter(between(year, 2008, 2012)) %>% 
  group_by(country) %>% 
  summarize(total_cephalopods = sum(catch, na.rm = TRUE)) %>% 
  arrange(desc(total_cephalopods))
```

```
## # A tibble: 122 x 2
##    country                  total_cephalopods
##    <fct>                                <dbl>
##  1 China                                 8349
##  2 Korea, Republic of                    3480
##  3 Peru                                  3422
##  4 Japan                                 3248
##  5 Chile                                 2775
##  6 United States of America              2417
##  7 Indonesia                             1622
##  8 Taiwan Province of China              1394
##  9 Spain                                 1147
## 10 France                                1138
## # ... with 112 more rows
```
…
9. Which species had the highest catch total between 2008-2012? (hint: Osteichthyes is not a species)

```r
fisheries_tidy_2 %>% 
  filter(between(year, 2008, 2012)) %>% 
  group_by(asfis_species_name) %>% 
  summarize(species_total = sum(catch, na.rm = TRUE)) %>% 
  arrange(desc(species_total))
```

```
## # A tibble: 1,472 x 2
##    asfis_species_name    species_total
##    <chr>                         <dbl>
##  1 Osteichthyes                 107808
##  2 Theragra chalcogramma         41075
##  3 Engraulis ringens             35523
##  4 Katsuwonus pelamis            32153
##  5 Trichiurus lepturus           30400
##  6 Clupea harengus               28527
##  7 Thunnus albacares             20119
##  8 Scomber japonicus             14723
##  9 Gadus morhua                  13253
## 10 Thunnus alalunga              12019
## # ... with 1,462 more rows
```
…
```r
#what country caught the most distinct species in 2000?
fisheries_tidy_2 %>% 
  filter(year == 2000) %>% 
  group_by(country) %>% 
  summarize(number_of_species = n_distinct(asfis_species_name)) %>% 
  arrange(desc(number_of_species))
```

```
## # A tibble: 193 x 2
##    country                  number_of_species
##    <fct>                                <int>
##  1 United States of America               275
##  2 Portugal                               223
##  3 Spain                                  210
##  4 France                                 200
##  5 United Kingdom                         151
##  6 Russian Federation                     143
##  7 New Zealand                            129
##  8 Korea, Republic of                     122
##  9 Saudi Arabia                           113
## 10 Japan                                  112
## # ... with 183 more rows
```
…
